%YAML 1.1
%TAG !u! tag:unity3d.com,2011:
--- !u!114 &11400000
MonoBehaviour:
  m_ObjectHideFlags: 0
  m_CorrespondingSourceObject: {fileID: 0}
  m_PrefabInstance: {fileID: 0}
  m_PrefabAsset: {fileID: 0}
  m_GameObject: {fileID: 0}
  m_Enabled: 1
  m_EditorHideFlags: 0
  m_Script: {fileID: 11500000, guid: 214a527c397a4fa299eb2f5f7db06a4a, type: 3}
  m_Name: LevelCollection
  m_EditorClassIdentifier: 
  _levelData:
  - IsLoaded: 1
    <SceneName>k__BackingField: Forest
    <NeighborScenes>k__BackingField:
    - Carve
    IsHasSpawnPoint: 1
    SpawnPoint: {x: -12.89, y: -3.3, z: 0}
    EnemySpawnData:
    - EnemyId: 2
      PatrolPoints:
      - {x: 2.6499996, y: -4.98}
      - {x: 13.65, y: -4.98}
      Positions: {x: 8.65, y: -4.98}
  - IsLoaded: 1
    <SceneName>k__BackingField: Carve
    <NeighborScenes>k__BackingField:
    - Forest
    - Carve 1
    - Carve 2
    IsHasSpawnPoint: 0
    SpawnPoint: {x: 87.25, y: -1.9457791, z: 0}
    EnemySpawnData: []
  - IsLoaded: 1
    <SceneName>k__BackingField: Carve 1
    <NeighborScenes>k__BackingField:
    - Carve
    IsHasSpawnPoint: 0
    SpawnPoint: {x: 87.25, y: -1.9457791, z: 0}
    EnemySpawnData: []
  - IsLoaded: 1
    <SceneName>k__BackingField: Carve 2
    <NeighborScenes>k__BackingField:
    - Carve
    IsHasSpawnPoint: 0
    SpawnPoint: {x: 87.25, y: -1.9457791, z: 0}
    EnemySpawnData: []
