%YAML 1.1
%TAG !u! tag:unity3d.com,2011:
--- !u!114 &11400000
MonoBehaviour:
  m_ObjectHideFlags: 0
  m_CorrespondingSourceObject: {fileID: 0}
  m_PrefabInstance: {fileID: 0}
  m_PrefabAsset: {fileID: 0}
  m_GameObject: {fileID: 0}
  m_Enabled: 1
  m_EditorHideFlags: 0
  m_Script: {fileID: 11500000, guid: 7df8555c6b9a4bd5a94ba20f8c3d5706, type: 3}
  m_Name: Heal
  m_EditorClassIdentifier: 
  Icon: {fileID: 0}
  Text: Heal buy
  Price: 0
  ActionId: 1
