%YAML 1.1
%TAG !u! tag:unity3d.com,2011:
--- !u!1045 &1
EditorBuildSettings:
  m_ObjectHideFlags: 0
  serializedVersion: 2
  m_Scenes:
  - enabled: 1
    path: Assets/Scenes/BootstrapGameplay.unity
    guid: 284337cdb6d91e347ac8e511bc2d4430
  - enabled: 0
    path: Assets/Scenes/Levels/Forest/Forest.unity
    guid: 4972be70c3cb0004184c6d7737b586bf
  - enabled: 0
    path: Assets/Scenes/Levels/Carve/Carve.unity
    guid: bd5ddd0aa571dd540b8015ccd757c807
  - enabled: 0
    path: Assets/Scenes/Levels/Carve/Carve 1.unity
    guid: b0c83ae8e02b42e45826fa61e1f8e39d
  - enabled: 0
    path: Assets/Scenes/Levels/Carve/Carve 2.unity
    guid: 28a58649f49e9fc4caa2ed1327d0d68c
  m_configObjects:
    com.unity.addressableassets: {fileID: 11400000, guid: da303933edd483747b55495143be25c6, type: 2}
