{
    "name": "Runtime",
    "rootNamespace": "",
    "references": [
        "GUID:4307f53044263cf4b835bd812fc161a4",
        "GUID:6055be8ebefd69e48b49212b09b47b2f",
        "GUID:0d8beb7f090555447a6cf5ce9e54dbb4",
        "GUID:75469ad4d38634e559750d17036d5f7c",
        "GUID:9e24947de15b9834991c9d8411ea37cf",
        "GUID:84651a3751eca9349aac36a66bba901b",
        "GUID:fbb42ce9710c43642a1fb8ad0301e3a9",
        "GUID:f51ebe6a0ceec4240a699833d6309b23"
    ],
    "includePlatforms": [],
    "excludePlatforms": [],
    "allowUnsafeCode": false,
    "overrideReferences": false,
    "precompiledReferences": [],
    "autoReferenced": true,
    "defineConstraints": [],
    "versionDefines": [],
    "noEngineReferences": false
}