{
    "name": "EditorHelper",
    "rootNamespace": "",
    "references": [
        "GUID:8470d7c63021c7744b30cdd39bc456d8"
    ],
    "includePlatforms": [],
    "excludePlatforms": [],
    "allowUnsafeCode": false,
    "overrideReferences": false,
    "precompiledReferences": [],
    "autoReferenced": true,
    "defineConstraints": [],
    "versionDefines": [],
    "noEngineReferences": false
}